<?xml version="1.0" encoding="UTF-8" standalone="no"?>
<svg
   width="100"
   height="90"
   viewBox="0 0 205 186" >
  <path
     style="fill:#3b748f;stroke:#cccccc;"
     d="M 16.328125 0.39648438 C 5.0999687 0.70888382 -0.022840087 5.2485758 -0.18945312 8.9140625 C -0.37986801 13.10319 7.4257664 19.196364 19.802734 20.148438 C 32.179702 21.100512 39.605498 16.150036 39.986328 11.580078 C 39.795913 7.9621951 36.36994 1.6776456 21.517578 0.53515625 C 19.661033 0.39234508 17.932147 0.35185588 16.328125 0.39648438 z M 21.726562 25.011719 C 10.495803 25.167918 4.3312729 30.645221 3.9980469 34.810547 C 3.6172171 39.57092 10.0919 47.758892 23.992188 49.091797 C 37.892474 50.424701 43.986358 43.949796 44.367188 38.808594 C 44.557603 34.619466 41.319188 27.002796 26.847656 25.289062 C 25.038715 25.074846 23.330957 24.989405 21.726562 25.011719 z M 143.33594 46.361328 C 141.56977 46.451701 140.16828 47.067588 139.38281 48.138672 C 137.28825 50.994896 140.71728 56.326498 146.81055 60.515625 C 152.90383 64.704753 158.23452 65.277166 160.13867 62.992188 C 162.04282 61.278454 160.1382 55.566021 154.04492 50.615234 C 150.23662 47.520992 146.27956 46.210707 143.33594 46.361328 z M 47.626953 52.904297 C 38.925606 52.826941 33.036525 56.898822 31.798828 61.849609 C 30.275509 67.942885 35.037095 75.750266 47.414062 79.177734 C 59.791031 82.605202 68.358502 77.08351 69.691406 70.990234 C 70.643481 65.849031 66.264678 56.327918 54.078125 53.662109 C 51.793146 53.16227 49.634956 52.922148 47.626953 52.904297 z M 160.40625 72.011719 C 158.62832 71.972204 157.16314 72.380868 156.33008 73.273438 C 153.66427 76.129662 155.75928 83.176225 162.04297 88.888672 C 168.32666 94.601119 174.99044 96.124793 177.65625 93.458984 C 180.13164 90.983591 178.41854 84.318877 173.27734 78.416016 C 169.74276 74.357798 164.3177 72.098652 160.40625 72.011719 z M 84.804688 79.501953 C 80.401947 79.64337 77.093267 81.344088 75.59375 84.128906 C 72.927941 89.079693 77.117927 99.171209 86.638672 103.16992 C 96.159417 107.16863 104.15742 105.45464 106.63281 99.742188 C 108.53696 94.7914 106.82246 86.794566 96.730469 82.224609 C 92.315224 80.225253 88.229041 79.391963 84.804688 79.501953 z M 127.71875 94.462891 C 124.75811 94.42742 122.13887 95.220588 120.72266 96.886719 C 117.48561 100.69502 119.58055 108.11953 125.67383 113.07031 C 131.76711 118.0211 139.95537 118.78288 143.76367 114.59375 C 146.8103 110.78546 144.52399 103.35999 139.00195 98.599609 C 135.89581 95.9219 131.52528 94.508495 127.71875 94.462891 z M 164.23828 100.63477 C 162.0817 100.68683 160.17525 101.27761 158.80664 102.4082 C 154.4271 106.02608 156.33052 115.35597 162.04297 121.83008 C 167.75541 128.30419 177.46712 130.77903 181.65625 127.35156 C 185.46455 124.68575 184.89309 115.54727 178.99023 108.12109 C 174.93202 103.01559 168.98276 100.52022 164.23828 100.63477 z M 150.88477 127.38672 C 146.88996 127.25037 143.28647 128.29293 141.28711 130.20898 C 136.71716 134.58852 135.38446 144.67941 143.95312 153.62891 C 152.52179 162.57841 162.80517 164.1031 168.89844 158.77148 C 174.42047 153.24945 172.5151 142.7767 165.66016 134.39844 C 161.80425 129.68567 156.02095 127.56202 150.88477 127.38672 z M 113.35742 143.32812 C 107.23634 143.23859 101.80044 145.82254 99.015625 149.25 C 94.064837 155.34328 94.06417 165.43439 103.01367 175.7168 C 111.23981 185.1681 127.76901 186.18997 133.67188 180.28711 C 139.1939 174.19384 138.62221 158.77074 127.95898 149.25 C 123.29382 145.08467 118.11826 143.39776 113.35742 143.32812 z "
     id="path26" />
<path 
     style="fill:#75cc33;"
     d="M 115.875 19.494141 C 113.62126 19.494141 111.91718 20.030479 111.20312 21.101562 C 109.29897 23.957785 114.43992 31.003211 120.5332 34.621094 C 126.62648 38.238978 136.71695 40.332756 138.62109 37.095703 C 139.76358 34.810724 137.28848 28.717404 129.67188 23.957031 C 124.91151 20.981799 119.63123 19.494141 115.875 19.494141 z M 86.71875 21.066406 C 82.670388 20.988167 79.390383 21.885248 78.640625 23.384766 C 77.307721 26.050574 81.68707 32.905524 88.732422 36.142578 C 95.777773 39.379631 104.53726 39.380593 106.44141 35.953125 C 107.96473 32.716072 104.15665 26.432365 96.730469 23.195312 C 93.481515 21.779101 89.867476 21.127259 86.71875 21.066406 z M 148.73828 31.212891 C 147.54819 31.227767 146.66671 31.479041 146.23828 31.955078 C 144.52455 33.859227 148.33355 41.095126 155.37891 46.236328 C 162.42426 51.37753 170.61244 54.614095 172.32617 52.519531 C 174.23032 50.615382 170.99262 43.568878 163.94727 37.666016 C 158.66325 33.238869 152.30856 31.168262 148.73828 31.212891 z M 66.111328 33.966797 C 61.795381 34.106261 58.196084 35.666689 57.125 38.046875 C 55.411266 41.855173 60.171475 47.75901 67.597656 50.615234 C 75.023837 53.471457 82.068478 51.94694 83.591797 47.757812 C 85.115117 44.330344 81.497485 38.237083 74.261719 35.380859 C 71.548306 34.309776 68.700896 33.883118 66.111328 33.966797 z M 181.64062 54.121094 C 181.23599 54.13411 180.91734 54.233413 180.70312 54.423828 C 178.98938 55.947147 181.27586 63.183135 187.36914 69.847656 C 193.46241 76.512178 200.88789 80.891468 203.36328 79.177734 C 205.45784 77.464 202.60208 70.60788 196.69922 63.943359 C 191.53422 58.111903 184.47304 54.029977 181.64062 54.121094 z "
     id="path46" />
  <text x="226" y="115" style="font-style:italic;font-variant:normal;font-weight:bold;font-stretch:normal;font-size:48px;font-family:Arial;font-variant-ligatures:normal;font-variant-caps:normal;font-variant-numeric:normal;font-feature-settings:normal;text-align:start;writing-mode:lr-tb;text-anchor:start;fill:#c4c4c4;fill-opacity:1">
       Terapia
  </text>
  <text style="font-style:normal;font-weight:normal;font-size:40px;line-height:1.25;font-family:sans-serif;letter-spacing:0px;word-spacing:0px;fill:#c4c4c4;fill-opacity:1;stroke:none"
     x="255.44049"
     y="164.46611"
     id="text4553-6"><tspan
       sodipodi:role="line"
       id="tspan4551-9"
       x="255.44049"
       y="164.46611"
       style="font-style:italic;font-variant:normal;font-weight:bold;font-stretch:normal;font-size:48px;font-family:Arial;-inkscape-font-specification:'Arial Bold Italic';font-variant-ligatures:normal;font-variant-caps:normal;font-variant-numeric:normal;font-feature-settings:normal;text-align:start;writing-mode:lr-tb;text-anchor:start;fill:#c4c4c4;fill-opacity:1">Re Ne</tspan><tspan
       sodipodi:role="line"
       x="255.44049"
       y="217.72311"
       id="tspan4555-1" /></text>













</svg>